module go-crud-tk

go 1.18

require (
	github.com/go-playground/locales v0.14.1 // indirect
	github.com/go-playground/universal-translator v0.18.1 // indirect
	github.com/go-playground/validator/v10 v10.13.0 // indirect
	github.com/go-sql-driver/mysql v1.7.1 // indirect
	github.com/leodido/go-urn v1.2.3 // indirect
	golang.org/x/crypto v0.7.0 // indirect
	golang.org/x/sys v0.6.0 // indirect
	golang.org/x/text v0.8.0 // indirect
)
